Homework 5 Twists

Total Score: 0/100 

Compiles                                        0/20 pts

Comments                                        0/10 pts

Check if integer                                0/10 pts

Check if positive integer                       0/10 pts

Check that hardcoding of output was not used    0/25 pts

Code works                                      0/25 pts

No Code.
